Exploring CQI Coffee data
…
## Warning: `funs()` was deprecated in dplyr 0.8.0.
## Please use a list of either functions or lambdas: 
## 
##   # Simple named list: 
##   list(mean = mean, median = median)
## 
##   # Auto named with `tibble::lst()`: 
##   tibble::lst(mean, median)
## 
##   # Using lambdas
##   list(~ mean(., trim = .2), ~ median(., na.rm = TRUE))

mean_TCP

## # A tibble: 36 x 2
##    Country.of.Origin      Total.Cup.Points
##    <chr>                             <dbl>
##  1 United States (Hawaii)             87.0
##  2 Ethiopia                           85.9
##  3 Papua New Guinea                   85.8
##  4 Japan                              84.7
##  5 United States                      84.4
##  6 Kenya                              84.3
##  7 Panama                             83.7
##  8 Uganda                             83.4
##  9 Colombia                           83.2
## 10 El Salvador                        83.1
## # ... with 26 more rows
…
